{
  "IM App Enabled" : "",
  "Provide your Node JS server" : "",
  "manage_notification_sound": "Manage Notification Sound",
  "custom_notification_sound": "Custom Notification Sound",
  "default": "Default",
  "custom": "Custom",
  "select_notification_sound_type": "Select Notification Sound Type",
  "current_custom_notification_sound_path": "Current custom notification sound path",
  "none": "None",
  "you_can_upload_a_mp3_wav_or_ogg_file": "You can upload a MP3, WAV or OGG file.",
  "redis_host": "Redis Host",
  "redis_port": "Redis Port",
  "redis_password": "Redis Password",
  "import_data_from_v3": "Import Data Directly",
  "import_data_from_v3_instruction": "Please enter your redis server below to import data from v3 to your site.",
  "export_data_from_im_to_chat_plus_instruction": "Please click on the button below to export data from Instant Messaging to Chat Plus.",
  "cannot_connect_to_redis": "Cannot connect to redis server. You can try import data manual below.",
  "export_data_to_chat_plus": "Export Data to Chat Plus",
  "import_data_successfully": "Import data from v3 successfully.",
  "export_data_successfully": "Export data from Instant Messaging successfully.",
  "import_directly_not_working": "This feature require PhpRedis extension to be installed in your server.",
  "table_im_not_found": "Table <b>{table}</b> not found so there is no data to import.",
  "instant_messaging": "Instant Messaging",
  "invalid_user": "Invalid User",
  "messenger": "Messenger",
  "conversations": "Conversations",
  "friends": "Friends",
  "no_conversations": "No conversations",
  "no_friends_found": "No friends found",
  "send": "send",
  "open_in_new_tab": "Open in new tab",
  "close_chat_box": "Close chat box",
  "this_message_has_been_deleted": "This message has been deleted.",
  "messaged_you": "messaged you",
  "unable_to_load_im": "Unable to connect with the IM server.",
  "hide_thread": "Hide this conversation",
  "search_thread": "Search in this conversation",
  "noti_thread": "Turn notification of this conversation on/off",
  "no_message": "No messages",
  "search_message": "Search Message",
  "enter_search_text": "Enter search text",
  "play": "Play",
  "close": "Close",
  "loading_conversation": "Loading conversation",
  "loading_messages": "Loading messages",
  "error": "Error",
  "deleted_user": "Deleted User",
  "you_cannot_reply_this_conversation": "You cannot reply this conversation anymore.",
  "uploading": "Uploading",
  "im_failed": "FAILED",
  "add_attachment": "Add Attachment",
  "im_file": "FILE",
  "just_now": "just now",
  "a_minute_ago": "a minute ago",
  "minutes_ago": "minutes ago",
  "a_hour_ago": "a hour ago",
  "hours_ago": "hours ago",
  "validator_im_pf_total_conversations": "\"Total Latest Conversations in IM List\" must be an integer and must be greater or equal 0.",
  "validator_im_pf_time_to_delete_message": "\"How long user can still delete their own message?\" must be an integer and must be greater or equal 0.",
  "the_administrator_can_remove_all_old_messages_from_server_server": "The administrator can remove all old messages from {server} server",
  "make_sure_you_want_to_remove_all_old_messages_because_it_cannot_be_undone": "Make sure you want to remove all old messages because it cannot be undone",
  "to_continue__please_enter_your_admin_login_details": "To continue. Please enter your admin login details",
  "unable_to_execute_shell_commands_using_shell_exec_the_function_is_disabled": "Unable to execute shell commands using shell_exec(); the function is disabled.",
  "firebase_remove_step_one": "1. Login into your <a href=\"{link}\" target=\"_blank\">Firebase console</a>.",
  "firebase_remove_step_two": "2. Select your project which set up for your site.",
  "firebase_remove_step_three": "3. In <b>Develop</b> section, select <b>Database</b>.",
  "firebase_remove_step_four": "4. Select <b>Cloud Firestore</b> in <b>Database</b>.",
  "firebase_remove_step_five": "5. In tab <b>Data</b>, select and delete all 3 below Collections:",
  "see_our_screen_shot_for_more_detail": "See our screenshot for more detail.",
  "go_to_console": "Go to console",
  "algolia_remove_step": "6. (Optional) If you're using Algolia, you should delete current Indices im_chat on your project. Login to <a href=\"{link}\" target=\"_blank\">Algolia Dashboard</a>, select <b>Indices > im_chat > Clear</b> (See Screenshot).</b>",
  "all_old_messages_removed_successfully": "All old messages removed successfully",
  "your_im_hosting_package_was_expired": "Your IM hosting package was expired.",
  "im_hosting_package": "IM Hosting Packages",
  "pay_im_hosting_package": "Pay IM Hosting Package",
  "starter": "Starter",
  "active_connections": "active connections",
  "pay": "Pay",
  "no_thank_i_ll_host_it_myself": "No thanks, I'll host it myself",
  "host_it_myself": "Host it myself.",
  "click_button_below_to_turn_on_off_hosting": "Click button below to turn on/off hosting.",
  "im_load_more": "Load More",
  "chat_plus_is_not_enabled": "Chat Plus is not enabled.",
  "all_chats": "All Chats",
  "messages": "Messages",
  "view_all_messages": "View All Messages",
  "chat": "Chat",
  "data_is_exporting_please_dont_close_this_window": "Data is exporting please don't close this window. It might take some minutes.",
  "done_messages_will_be_exported_soon": "Done. Messages will be exported to Chat Plus soon.",
  "im_exported_data_to_chat_plus": "Data from Instance Message were exported to Chat Plus. You can't do this again.",
  "im_pick_a_contact_from_the_list_and_start_your_conversation": "Pick a contact from the list and start your conversation"
}